firstName,lastName,email,phoneNumber
John,Doe,john@doe.com,123456789
Jane,Doe,jane@doe.com,9876543210
James,Bond,james.bond@mi6.co.uk,612345678
nam1,Bond,nam1@oc.com,325678954
nam2,Bond,nam2@oc.com,325678955
nam3,Bond,nam3@oc.com,325678956
nam4,Bo,nd,nam4@oc.com,325678957
nam5,Bon,d,nam5@oc.com,325678958
nam6,Bond,nam6@oc.com,325678959
nam7,Bond,nam7@oc.com,325678960
nam8,Bond,nam8@oc.com,325678961
nam9,Bond,nam9@oc.com,325678962
nam10,Bond,nam10@oc.com,325678963
nam11,Bond,nam11@oc.com,325678964
nam12,Bond,nam12@oc.com,325678965
nam13,Bond,nam13@oc.com,325678966
nam14,Bond,nam14@oc.com,325678967
nam15,Bond,nam15@oc.com,325678968
nam16,Bond,nam16@oc.com,325678969
nam1,Bond,nam1@oc.com,325678954
nam2,Bond,nam2@oc.com,325678955
nam3,Bond,nam3@oc.com,325678956
nam4,Bond,nam4@oc.com,325678957
nam5,Bond,nam5@oc.com,325678958
nam6,Bond,nam6@oc.com,325678959
nam7,Bond,nam7@oc.com,325678960
nam8,Bond,nam8@oc.com,325678961
nam9,Bond,nam9@oc.com,325678962
nam10,Bond,nam10@oc.com,325678963
nam11,Bond,nam11@oc.com,325678964
nam12,Bond,nam12@oc.com,325678965
nam13,Bond,nam13@oc.com,325678966
nam14,Bond,nam14@oc.com,325678967
nam15,Bond,nam15@oc.com,325678968
nam16,Bond,nam16@oc.com,325678969
nam1,Bond,nam1@oc.com,325678954
nam2,Bond,nam2@oc.com,325678955
nam3,Bond,nam3@oc.com,325678956
nam4,Bond,nam4@oc.com,325678957
nam5,Bond,nam5@oc.com,325678958
nam6,Bond,nam6@oc.com,325678959
nam7,Bond,nam7@oc.com,325678960
nam8,Bond,nam8@oc.com,325678961
nam9,Bond,nam9@oc.com,325678962
nam10,Bond,nam10@oc.com,325678963
nam11,Bond,nam11@oc.com,325678964
nam12,Bond,nam12@oc.com,325678965
nam13,Bond,nam13@oc.com,325678966
nam14,Bond,nam14@oc.com,325678967
nam15,Bond,nam15@oc.com,325678968
nam16,Bond,nam16@oc.com,325678969
quang01,Nguyen,quang01@oc.com,584656196
quang02,Nguyen,quang02@oc.com,584656197
quang03,Nguyen,quang03@oc.com,584656198
quang04,Nguyen,quang04@oc.com,584656199
quang05,Nguyen,quang05@oc.com,584656200
quang06,Nguyen,quang06@oc.com,584656201
quang07,Nguyen,quang07@oc.com,584656202
quang08,Nguyen,quang08@oc.com,584656203
quang09,Nguyen,quang09@oc.com,584656204
quang10,Nguyen,quang10@oc.com,584656205
quang11,Nguyen,quang11@oc.com,584656206
quang12,Nguyen,quang12@oc.com,584656207
quang13,Nguyen,quang13@oc.com,584656208
quang14,Nguyen,quang14@oc.com,584656209
quang15,Nguyen,quang15@oc.com,584656210
quang16,Nguyen,quang16@oc.com,584656211
quang17,Nguyen,quang17@oc.com,584656212
quang18,Nguyen,quang18@oc.com,584656213
quang19,Nguyen,quang19@oc.com,584656214
quang20,Nguyen,quang20@oc.com,584656215
quang21,Nguyen,quang21@oc.com,584656216
quang22,Nguyen,quang22@oc.com,584656217
quang23,Nguyen,quang23@oc.com,584656218
quang24,Nguyen,quang24@oc.com,584656219
quang25,Nguyen,quang25@oc.com,584656220
quang26,Nguyen,quang26@oc.com,584656221
quang27,Nguyen,quang27@oc.com,584656222
quang28,Nguyen,quang28@oc.com,584656223
quang29,Nguyen,quang29@oc.com,584656224
quang30,Nguyen,quang30@oc.com,584656225
quang31,Nguyen,quang31@oc.com,584656226
quang32,Nguyen,quang32@oc.com,584656227
quang33,Nguyen,quang33@oc.com,584656228
quang34,Nguyen,quang34@oc.com,584656229
quang35,Nguyen,quang35@oc.com,584656230
quang36,Nguyen,quang36@oc.com,584656231
quang37,Nguyen,quang37@oc.com,584656232
quang38,Nguyen,quang38@oc.com,584656233
quang39,Nguyen,quang39@oc.com,584656234
quang40,Nguyen,quang40@oc.com,584656235
quang41,Nguyen,quang41@oc.com,584656236
quang42,Nguyen,quang42@oc.com,584656237
quang43,Nguyen,quang43@oc.com,584656238
quang44,Nguyen,quang44@oc.com,584656239
quang45,Nguyen,quang45@oc.com,584656240
quang46,Nguyen,quang46@oc.com,584656241
quang47,Nguyen,quang47@oc.com,584656242
quang48,Nguyen,quang48@oc.com,584656243
quang49,Nguyen,quang49@oc.com,584656244
quang50,Nguyen,quang50@oc.com,584656245
quang51,Nguyen,quang51@oc.com,584656246
quang52,Nguyen,quang52@oc.com,584656247
quang53,Nguyen,quang53@oc.com,584656248
quang54,Nguyen,quang54@oc.com,584656249
quang55,Nguyen,quang55@oc.com,584656250
quang56,Nguyen,quang56@oc.com,584656251
quang57,Nguyen,quang57@oc.com,584656252
quang58,Nguyen,quang58@oc.com,584656253
quang59,Nguyen,quang59@oc.com,584656254
quang60,Nguyen,quang60@oc.com,584656255
quang61,Nguyen,quang61@oc.com,584656256
quang62,Nguyen,quang62@oc.com,584656257
quang63,Nguyen,quang63@oc.com,584656258
quang64,Nguyen,quang64@oc.com,584656259
quang65,Nguyen,quang65@oc.com,584656260
quang66,Nguyen,quang66@oc.com,584656261
quang67,Nguyen,quang67@oc.com,584656262
quang68,Nguyen,quang68@oc.com,584656263
quang69,Nguyen,quang69@oc.com,584656264
quang70,Nguyen,quang70@oc.com,584656265
quang71,Nguyen,quang71@oc.com,584656266
quang72,Nguyen,quang72@oc.com,584656267
quang73,Nguyen,quang73@oc.com,584656268
quang74,Nguyen,quang74@oc.com,584656269
quang75,Nguyen,quang75@oc.com,584656270
quang76,Nguyen,quang76@oc.com,584656271
quang77,Nguyen,quang77@oc.com,584656272
quang78,Nguyen,quang78@oc.com,584656273
quang79,Nguyen,quang79@oc.com,584656274
quang80,Nguyen,quang80@oc.com,584656275
quang81,Nguyen,quang81@oc.com,584656276
quang82,Nguyen,quang82@oc.com,584656277
quang83,Nguyen,quang83@oc.com,584656278
quang84,Nguyen,quang84@oc.com,584656279
quang85,Nguyen,quang85@oc.com,584656280
quang86,Nguyen,quang86@oc.com,584656281
quang87,Nguyen,quang87@oc.com,584656282
quang88,Nguyen,quang88@oc.com,584656283
quang89,Nguyen,quang89@oc.com,584656284
quang90,Nguyen,quang90@oc.com,584656285
quang91,Nguyen,quang91@oc.com,584656286
quang92,Nguyen,quang92@oc.com,584656287
quang93,Nguyen,quang93@oc.com,584656288
quang94,Nguyen,quang94@oc.com,584656289
quang95,Nguyen,quang95@oc.com,584656290
quang96,Nguyen,quang96@oc.com,584656291
quang97,Nguyen,quang97@oc.com,584656292
quang98,Nguyen,quang98@oc.com,584656293
quang99,Nguyen,quang99@oc.com,584656294
quang100,Nguyen,quang100@oc.com,584656295
quang101,Nguyen,quang101@oc.com,584656296
quang102,Nguyen,quang102@oc.com,584656297
quang103,Nguyen,quang103@oc.com,584656298
quang104,Nguyen,quang104@oc.com,584656299
quang105,Nguyen,quang105@oc.com,584656300
quang106,Nguyen,quang106@oc.com,584656301
quang107,Nguyen,quang107@oc.com,584656302
quang108,Nguyen,quang108@oc.com,584656303
quang109,Nguyen,quang109@oc.com,584656304
quang110,Nguyen,quang110@oc.com,584656305
quang111,Nguyen,quang111@oc.com,584656306
quang112,Nguyen,quang112@oc.com,584656307
quang113,Nguyen,quang113@oc.com,584656308
quang114,Nguyen,quang114@oc.com,584656309
quang115,Nguyen,quang115@oc.com,584656310
quang116,Nguyen,quang116@oc.com,584656311
quang117,Nguyen,quang117@oc.com,584656312
quang118,Nguyen,quang118@oc.com,584656313
quang119,Nguyen,quang119@oc.com,584656314
quang120,Nguyen,quang120@oc.com,584656315
quang121,Nguyen,quang121@oc.com,584656316
quang122,Nguyen,quang122@oc.com,584656317
quang123,Nguyen,quang123@oc.com,584656318
quang124,Nguyen,quang124@oc.com,584656319
quang125,Nguyen,quang125@oc.com,584656320
quang126,Nguyen,quang126@oc.com,584656321
quang127,Nguyen,quang127@oc.com,584656322
quang128,Nguyen,quang128@oc.com,584656323
quang129,Nguyen,quang129@oc.com,584656324
quang130,Nguyen,quang130@oc.com,584656325
quang131,Nguyen,quang131@oc.com,584656326
quang132,Nguyen,quang132@oc.com,584656327
quang133,Nguyen,quang133@oc.com,584656328
quang134,Nguyen,quang134@oc.com,584656329
quang135,Nguyen,quang135@oc.com,584656330
quang136,Nguyen,quang136@oc.com,584656331
quang137,Nguyen,quang137@oc.com,584656332
quang138,Nguyen,quang138@oc.com,584656333
quang139,Nguyen,quang139@oc.com,584656334
quang140,Nguyen,quang140@oc.com,584656335
quang141,Nguyen,quang141@oc.com,584656336
quang142,Nguyen,quang142@oc.com,584656337
quang143,Nguyen,quang143@oc.com,584656338
quang144,Nguyen,quang144@oc.com,584656339
quang145,Nguyen,quang145@oc.com,584656340
quang146,Nguyen,quang146@oc.com,584656341
quang147,Nguyen,quang147@oc.com,584656342
quang148,Nguyen,quang148@oc.com,584656343
quang149,Nguyen,quang149@oc.com,584656344
quang150,Nguyen,quang150@oc.com,584656345
quang151,Nguyen,quang151@oc.com,584656346
quang152,Nguyen,quang152@oc.com,584656347
quang153,Nguyen,quang153@oc.com,584656348
quang154,Nguyen,quang154@oc.com,584656349
quang155,Nguyen,quang155@oc.com,584656350
quang156,Nguyen,quang156@oc.com,584656351
quang157,Nguyen,quang157@oc.com,584656352
quang158,Nguyen,quang158@oc.com,584656353
quang159,Nguyen,quang159@oc.com,584656354
quang160,Nguyen,quang160@oc.com,584656355
quang161,Nguyen,quang161@oc.com,584656356
quang162,Nguyen,quang162@oc.com,584656357
quang163,Nguyen,quang163@oc.com,584656358
quang164,Nguyen,quang164@oc.com,584656359
quang165,Nguyen,quang165@oc.com,584656360
quang166,Nguyen,quang166@oc.com,584656361
quang167,Nguyen,quang167@oc.com,584656362
quang168,Nguyen,quang168@oc.com,584656363
quang169,Nguyen,quang169@oc.com,584656364
quang170,Nguyen,quang170@oc.com,584656365
quang171,Nguyen,quang171@oc.com,584656366
quang172,Nguyen,quang172@oc.com,584656367
quang173,Nguyen,quang173@oc.com,584656368
quang174,Nguyen,quang174@oc.com,584656369
quang175,Nguyen,quang175@oc.com,584656370
quang176,Nguyen,quang176@oc.com,584656371
quang177,Nguyen,quang177@oc.com,584656372
quang178,Nguyen,quang178@oc.com,584656373
quang179,Nguyen,quang179@oc.com,584656374
quang180,Nguyen,quang180@oc.com,584656375
quang181,Nguyen,quang181@oc.com,584656376
quang182,Nguyen,quang182@oc.com,584656377
quang183,Nguyen,quang183@oc.com,584656378
quang184,Nguyen,quang184@oc.com,584656379
quang185,Nguyen,quang185@oc.com,584656380
quang186,Nguyen,quang186@oc.com,584656381
quang187,Nguyen,quang187@oc.com,584656382
quang188,Nguyen,quang188@oc.com,584656383
quang189,Nguyen,quang189@oc.com,584656384
quang190,Nguyen,quang190@oc.com,584656385
quang191,Nguyen,quang191@oc.com,584656386
quang192,Nguyen,quang192@oc.com,584656387
quang193,Nguyen,quang193@oc.com,584656388
quang194,Nguyen,quang194@oc.com,584656389
quang195,Nguyen,quang195@oc.com,584656390
quang196,Nguyen,quang196@oc.com,584656391
quang197,Nguyen,quang197@oc.com,584656392
quang198,Nguyen,quang198@oc.com,584656393
quang199,Nguyen,quang199@oc.com,584656394
quang200,Nguyen,quang200@oc.com,584656395
quang201,Nguyen,quang201@oc.com,584656396
quang202,Nguyen,quang202@oc.com,584656397
quang203,Nguyen,quang203@oc.com,584656398
quang204,Nguyen,quang204@oc.com,584656399
quang205,Nguyen,quang205@oc.com,584656400
quang206,Nguyen,quang206@oc.com,584656401
quang207,Nguyen,quang207@oc.com,584656402
quang208,Nguyen,quang208@oc.com,584656403
quang209,Nguyen,quang209@oc.com,584656404
quang210,Nguyen,quang210@oc.com,584656405
quang211,Nguyen,quang211@oc.com,584656406
quang212,Nguyen,quang212@oc.com,584656407
quang213,Nguyen,quang213@oc.com,584656408
quang214,Nguyen,quang214@oc.com,584656409
quang215,Nguyen,quang215@oc.com,584656410
quang216,Nguyen,quang216@oc.com,584656411
quang217,Nguyen,quang217@oc.com,584656412
quang218,Nguyen,quang218@oc.com,584656413
quang219,Nguyen,quang219@oc.com,584656414
quang220,Nguyen,quang220@oc.com,584656415
quang221,Nguyen,quang221@oc.com,584656416
quang222,Nguyen,quang222@oc.com,584656417
quang223,Nguyen,quang223@oc.com,584656418
quang224,Nguyen,quang224@oc.com,584656419
quang225,Nguyen,quang225@oc.com,584656420
quang226,Nguyen,quang226@oc.com,584656421
quang227,Nguyen,quang227@oc.com,584656422
quang228,Nguyen,quang228@oc.com,584656423
quang229,Nguyen,quang229@oc.com,584656424
quang230,Nguyen,quang230@oc.com,584656425
quang231,Nguyen,quang231@oc.com,584656426
quang232,Nguyen,quang232@oc.com,584656427
quang233,Nguyen,quang233@oc.com,584656428
quang234,Nguyen,quang234@oc.com,584656429
quang235,Nguyen,quang235@oc.com,584656430
quang236,Nguyen,quang236@oc.com,584656431
quang237,Nguyen,quang237@oc.com,584656432
quang238,Nguyen,quang238@oc.com,584656433
quang239,Nguyen,quang239@oc.com,584656434
quang240,Nguyen,quang240@oc.com,584656435
quang241,Nguyen,quang241@oc.com,584656436
quang242,Nguyen,quang242@oc.com,584656437
quang243,Nguyen,quang243@oc.com,584656438
quang244,Nguyen,quang244@oc.com,584656439
quang245,Nguyen,quang245@oc.com,584656440
quang246,Nguyen,quang246@oc.com,584656441
quang247,Nguyen,quang247@oc.com,584656442
quang248,Nguyen,quang248@oc.com,584656443
quang249,Nguyen,quang249@oc.com,584656444
quang250,Nguyen,quang250@oc.com,584656445
quang251,Nguyen,quang251@oc.com,584656446
quang252,Nguyen,quang252@oc.com,584656447
quang253,Nguyen,quang253@oc.com,584656448
quang254,Nguyen,quang254@oc.com,584656449
quang255,Nguyen,quang255@oc.com,584656450
quang256,Nguyen,quang256@oc.com,584656451
quang257,Nguyen,quang257@oc.com,584656452
quang258,Nguyen,quang258@oc.com,584656453
quang259,Nguyen,quang259@oc.com,584656454
quang260,Nguyen,quang260@oc.com,584656455
quang261,Nguyen,quang261@oc.com,584656456
quang262,Nguyen,quang262@oc.com,584656457
quang263,Nguyen,quang263@oc.com,584656458
quang264,Nguyen,quang264@oc.com,584656459
quang265,Nguyen,quang265@oc.com,584656460
quang266,Nguyen,quang266@oc.com,584656461
quang267,Nguyen,quang267@oc.com,584656462
quang268,Nguyen,quang268@oc.com,584656463
quang269,Nguyen,quang269@oc.com,584656464
quang270,Nguyen,quang270@oc.com,584656465
quang271,Nguyen,quang271@oc.com,584656466
quang272,Nguyen,quang272@oc.com,584656467
quang273,Nguyen,quang273@oc.com,584656468
quang274,Nguyen,quang274@oc.com,584656469
quang275,Nguyen,quang275@oc.com,584656470
quang276,Nguyen,quang276@oc.com,584656471
quang277,Nguyen,quang277@oc.com,584656472
quang278,Nguyen,quang278@oc.com,584656473
quang279,Nguyen,quang279@oc.com,584656474
quang280,Nguyen,quang280@oc.com,584656475
quang281,Nguyen,quang281@oc.com,584656476
quang282,Nguyen,quang282@oc.com,584656477
quang283,Nguyen,quang283@oc.com,584656478
quang284,Nguyen,quang284@oc.com,584656479
quang285,Nguyen,quang285@oc.com,584656480
quang286,Nguyen,quang286@oc.com,584656481
quang287,Nguyen,quang287@oc.com,584656482
quang288,Nguyen,quang288@oc.com,584656483
quang289,Nguyen,quang289@oc.com,584656484
quang290,Nguyen,quang290@oc.com,584656485
quang291,Nguyen,quang291@oc.com,584656486
quang292,Nguyen,quang292@oc.com,584656487
quang293,Nguyen,quang293@oc.com,584656488
quang294,Nguyen,quang294@oc.com,584656489
quang295,Nguyen,quang295@oc.com,584656490
quang296,Nguyen,quang296@oc.com,584656491
quang297,Nguyen,quang297@oc.com,584656492
quang298,Nguyen,quang298@oc.com,584656493
quang299,Nguyen,quang299@oc.com,584656494
quang300,Nguyen,quang300@oc.com,584656495
quang301,Nguyen,quang301@oc.com,584656496
quang302,Nguyen,quang302@oc.com,584656497
quang303,Nguyen,quang303@oc.com,584656498
quang304,Nguyen,quang304@oc.com,584656499
quang305,Nguyen,quang305@oc.com,584656500
quang306,Nguyen,quang306@oc.com,584656501
quang307,Nguyen,quang307@oc.com,584656502
quang308,Nguyen,quang308@oc.com,584656503
quang309,Nguyen,quang309@oc.com,584656504
quang310,Nguyen,quang310@oc.com,584656505
quang311,Nguyen,quang311@oc.com,584656506
quang312,Nguyen,quang312@oc.com,584656507
quang313,Nguyen,quang313@oc.com,584656508
quang314,Nguyen,quang314@oc.com,584656509
quang315,Nguyen,quang315@oc.com,584656510
quang316,Nguyen,quang316@oc.com,584656511
quang317,Nguyen,quang317@oc.com,584656512
quang318,Nguyen,quang318@oc.com,584656513
quang319,Nguyen,quang319@oc.com,584656514
quang320,Nguyen,quang320@oc.com,584656515
quang321,Nguyen,quang321@oc.com,584656516
quang322,Nguyen,quang322@oc.com,584656517
quang323,Nguyen,quang323@oc.com,584656518
quang324,Nguyen,quang324@oc.com,584656519
quang325,Nguyen,quang325@oc.com,584656520
quang326,Nguyen,quang326@oc.com,584656521
quang327,Nguyen,quang327@oc.com,584656522
quang328,Nguyen,quang328@oc.com,584656523
quang329,Nguyen,quang329@oc.com,584656524
quang330,Nguyen,quang330@oc.com,584656525
quang331,Nguyen,quang331@oc.com,584656526
quang332,Nguyen,quang332@oc.com,584656527
quang333,Nguyen,quang333@oc.com,584656528
quang334,Nguyen,quang334@oc.com,584656529
quang335,Nguyen,quang335@oc.com,584656530
quang336,Nguyen,quang336@oc.com,584656531
quang337,Nguyen,quang337@oc.com,584656532
quang338,Nguyen,quang338@oc.com,584656533
quang339,Nguyen,quang339@oc.com,584656534
quang340,Nguyen,quang340@oc.com,584656535
quang341,Nguyen,quang341@oc.com,584656536
quang342,Nguyen,quang342@oc.com,584656537
quang343,Nguyen,quang343@oc.com,584656538
quang344,Nguyen,quang344@oc.com,584656539
quang345,Nguyen,quang345@oc.com,584656540
quang346,Nguyen,quang346@oc.com,584656541
quang347,Nguyen,quang347@oc.com,584656542
quang348,Nguyen,quang348@oc.com,584656543
quang349,Nguyen,quang349@oc.com,584656544
quang350,Nguyen,quang350@oc.com,584656545
quang351,Nguyen,quang351@oc.com,584656546
quang352,Nguyen,quang352@oc.com,584656547
quang353,Nguyen,quang353@oc.com,584656548
quang354,Nguyen,quang354@oc.com,584656549
quang355,Nguyen,quang355@oc.com,584656550
quang356,Nguyen,quang356@oc.com,584656551
quang357,Nguyen,quang357@oc.com,584656552
quang358,Nguyen,quang358@oc.com,584656553
quang359,Nguyen,quang359@oc.com,584656554
quang360,Nguyen,quang360@oc.com,584656555
quang361,Nguyen,quang361@oc.com,584656556
quang362,Nguyen,quang362@oc.com,584656557
quang363,Nguyen,quang363@oc.com,584656558
quang364,Nguyen,quang364@oc.com,584656559
quang365,Nguyen,quang365@oc.com,584656560
quang366,Nguyen,quang366@oc.com,584656561
quang367,Nguyen,quang367@oc.com,584656562
quang368,Nguyen,quang368@oc.com,584656563
quang369,Nguyen,quang369@oc.com,584656564
quang370,Nguyen,quang370@oc.com,584656565
quang371,Nguyen,quang371@oc.com,584656566
quang372,Nguyen,quang372@oc.com,584656567
quang373,Nguyen,quang373@oc.com,584656568
quang374,Nguyen,quang374@oc.com,584656569
quang375,Nguyen,quang375@oc.com,584656570
quang376,Nguyen,quang376@oc.com,584656571
quang377,Nguyen,quang377@oc.com,584656572
quang378,Nguyen,quang378@oc.com,584656573
quang379,Nguyen,quang379@oc.com,584656574
quang380,Nguyen,quang380@oc.com,584656575
quang381,Nguyen,quang381@oc.com,584656576
quang382,Nguyen,quang382@oc.com,584656577
quang383,Nguyen,quang383@oc.com,584656578
quang384,Nguyen,quang384@oc.com,584656579
quang385,Nguyen,quang385@oc.com,584656580
quang386,Nguyen,quang386@oc.com,584656581
quang387,Nguyen,quang387@oc.com,584656582
quang388,Nguyen,quang388@oc.com,584656583
quang389,Nguyen,quang389@oc.com,584656584
quang390,Nguyen,quang390@oc.com,584656585
quang391,Nguyen,quang391@oc.com,584656586
quang392,Nguyen,quang392@oc.com,584656587
quang393,Nguyen,quang393@oc.com,584656588
quang394,Nguyen,quang394@oc.com,584656589
quang395,Nguyen,quang395@oc.com,584656590
quang396,Nguyen,quang396@oc.com,584656591
quang397,Nguyen,quang397@oc.com,584656592
quang398,Nguyen,quang398@oc.com,584656593
quang399,Nguyen,quang399@oc.com,584656594
quang400,Nguyen,quang400@oc.com,584656595
quang401,Nguyen,quang401@oc.com,584656596
quang402,Nguyen,quang402@oc.com,584656597
quang403,Nguyen,quang403@oc.com,584656598
quang404,Nguyen,quang404@oc.com,584656599
quang405,Nguyen,quang405@oc.com,584656600
quang406,Nguyen,quang406@oc.com,584656601
quang407,Nguyen,quang407@oc.com,584656602
quang408,Nguyen,quang408@oc.com,584656603
quang409,Nguyen,quang409@oc.com,584656604
quang410,Nguyen,quang410@oc.com,584656605
quang411,Nguyen,quang411@oc.com,584656606
quang412,Nguyen,quang412@oc.com,584656607
quang413,Nguyen,quang413@oc.com,584656608
quang414,Nguyen,quang414@oc.com,584656609
quang415,Nguyen,quang415@oc.com,584656610
quang416,Nguyen,quang416@oc.com,584656611
quang417,Nguyen,quang417@oc.com,584656612
quang418,Nguyen,quang418@oc.com,584656613
quang419,Nguyen,quang419@oc.com,584656614
quang420,Nguyen,quang420@oc.com,584656615
quang421,Nguyen,quang421@oc.com,584656616
quang422,Nguyen,quang422@oc.com,584656617
quang423,Nguyen,quang423@oc.com,584656618
quang424,Nguyen,quang424@oc.com,584656619
quang425,Nguyen,quang425@oc.com,584656620
quang426,Nguyen,quang426@oc.com,584656621
quang427,Nguyen,quang427@oc.com,584656622
quang428,Nguyen,quang428@oc.com,584656623
quang429,Nguyen,quang429@oc.com,584656624
quang430,Nguyen,quang430@oc.com,584656625
quang431,Nguyen,quang431@oc.com,584656626
quang432,Nguyen,quang432@oc.com,584656627
quang433,Nguyen,quang433@oc.com,584656628
quang434,Nguyen,quang434@oc.com,584656629
quang435,Nguyen,quang435@oc.com,584656630
quang436,Nguyen,quang436@oc.com,584656631
quang437,Nguyen,quang437@oc.com,584656632
quang438,Nguyen,quang438@oc.com,584656633
quang439,Nguyen,quang439@oc.com,584656634
quang440,Nguyen,quang440@oc.com,584656635
quang441,Nguyen,quang441@oc.com,584656636
quang442,Nguyen,quang442@oc.com,584656637
quang443,Nguyen,quang443@oc.com,584656638
quang444,Nguyen,quang444@oc.com,584656639
quang445,Nguyen,quang445@oc.com,584656640
quang446,Nguyen,quang446@oc.com,584656641
quang447,Nguyen,quang447@oc.com,584656642
quang448,Nguyen,quang448@oc.com,584656643
quang449,Nguyen,quang449@oc.com,584656644
quang450,Nguyen,quang450@oc.com,584656645
quang451,Nguyen,quang451@oc.com,584656646
quang452,Nguyen,quang452@oc.com,584656647
trung01,Harry,trung01@ocft.com,584656648
trung02,Harry,trung02@ocft.com,584656649
trung03,Harry,trung03@ocft.com,584656650
trung04,Harry,trung04@ocft.com,584656651
trung05,Harry,trung05@ocft.com,584656652
trung06,Harry,trung06@ocft.com,584656653
trung07,Harry,trung07@ocft.com,584656654
trung08,Harry,trung08@ocft.com,584656655
trung09,Harry,trung09@ocft.com,584656656
trung10,Harry,trung10@ocft.com,584656657
trung11,Harry,trung11@ocft.com,584656658
trung12,Danue,trung12@ocft.com,584656659
trung13,Danue,trung13@ocft.com,584656660
trung14,Danue,trung14@ocft.com,584656661
trung15,Danue,trung15@ocft.com,584656662
trung16,Danue,trung16@ocft.com,584656663
trung17,Danue,trung17@ocft.com,584656664
trung18,Danue,trung18@ocft.com,584656665
trung19,Danue,trung19@ocft.com,584656666
trung20,Danue,trung20@ocft.com,584656667
trung21,Danue,trung21@ocft.com,584656668
trung22,Danue,trung22@ocft.com,584656669
trung23,Danue,trung23@ocft.com,584656670
trung24,Danue,trung24@ocft.com,584656671
trung25,Danue,trung25@ocft.com,584656672
trung26,Danue,trung26@ocft.com,584656673
trung27,Danue,trung27@ocft.com,584656674
trung28,Danue,trung28@ocft.com,584656675
trung29,Danue,trung29@ocft.com,584656676
trung30,Danue,trung30@ocft.com,584656677
trung31,Danue,trung31@ocft.com,584656678
trung32,Danue,trung32@ocft.com,584656679
trung33,Danue,trung33@ocft.com,584656680
trung34,Danue,trung34@ocft.com,584656681
trung35,Danue,trung35@ocft.com,584656682
trung36,Danue,trung36@ocft.com,584656683
trung37,Danue,trung37@ocft.com,584656684
trung38,Danue,trung38@ocft.com,584656685
trung39,Danue,trung39@ocft.com,584656686
trung40,Danue,trung40@ocft.com,584656687
trung41,Danue,trung41@ocft.com,584656688
trung42,Danue,trung42@ocft.com,584656689
trung43,Danue,trung43@ocft.com,584656690
trung44,Danue,trung44@ocft.com,584656691
trung45,Danue,trung45@ocft.com,584656692
trung46,Danue,trung46@ocft.com,584656693
trung47,Danue,trung47@ocft.com,584656694
trung48,Danue,trung48@ocft.com,584656695
trung49,Danue,trung49@ocft.com,584656696
trung50,Danue,trung50@ocft.com,584656697
trung51,Danue,trung51@ocft.com,584656698
trung52,Danue,trung52@ocft.com,584656699
trung53,Danue,trung53@ocft.com,584656700
trung54,Danue,trung54@ocft.com,584656701
trung55,Danue,trung55@ocft.com,584656702
trung56,Danue,trung56@ocft.com,7554651
trung57,Danue,trung57@ocft.com,7554652
trung58,Danue,trung58@ocft.com,7554653
trung59,Danue,trung59@ocft.com,7554654
trung60,Danue,trung60@ocft.com,7554655
trung61,Danue,trung61@ocft.com,7554656
trung62,Danue,trung62@ocft.com,7554657
trung63,Danue,trung63@ocft.com,7554658
trung64,Danue,trung64@ocft.com,7554659
trung65,Danue,trung65@ocft.com,7554660
trung66,Danue,trung66@ocft.com,7554661
trung67,Danue,trung67@ocft.com,7554662
trung68,Danue,trung68@ocft.com,7554663
trung69,Danue,trung69@ocft.com,7554664
trung70,Danue,trung70@ocft.com,7554665
trung71,Danue,trung71@ocft.com,7554666
trung72,Danue,trung72@ocft.com,7554667
trung73,Danue,trung73@ocft.com,7554668
trung74,Danue,trung74@ocft.com,7554669
trung75,Danue,trung75@ocft.com,7554670
trung76,Danue,trung76@ocft.com,7554671
trung77,Danue,trung77@ocft.com,7554672
trung78,Danue,trung78@ocft.com,7554673
trung79,Danue,trung79@ocft.com,7554674
trung80,Danue,trung80@ocft.com,7554675
trung81,Danue,trung81@ocft.com,7554676
trung82,Danue,trung82@ocft.com,7554677
trung83,Danue,trung83@ocft.com,7554678
trung84,Danue,trung84@ocft.com,7554679
trung85,Danue,trung85@ocft.com,7554680
trung86,Danue,trung86@ocft.com,7554681
trung87,Danue,trung87@ocft.com,7554682
trung88,Danue,trung88@ocft.com,7554683
trung89,Danue,trung89@ocft.com,7554684
trung90,Danue,trung90@ocft.com,7554685
trung91,Danue,trung91@ocft.com,7554686
trung92,Danue,trung92@ocft.com,7554687
trung93,Danue,trung93@ocft.com,7554688
trung94,Danue,trung94@ocft.com,7554689
trung95,Danue,trung95@ocft.com,7554690
trung96,Danue,trung96@ocft.com,7554691
trung97,Danue,trung97@ocft.com,7554692
trung98,Danue,trung98@ocft.com,7554693
trung99,Danue,trung99@ocft.com,7554694
trung100,Danue,trung100@ocft.com,7554695
trung101,Danue,trung101@ocft.com,7554696
trung102,Danue,trung102@ocft.com,7554697
trung103,Danue,trung103@ocft.com,7554698
trung104,Danue,trung104@ocft.com,7554699
trung105,Danue,trung105@ocft.com,7554700
trung106,Danue,trung106@ocft.com,7554701
trung107,Danue,trung107@ocft.com,7554702
trung108,Danue,trung108@ocft.com,7554703
trung109,Danue,trung109@ocft.com,7554704
trung110,Danue,trung110@ocft.com,7554705
trung111,Danue,trung111@ocft.com,7554706
trung112,Danue,trung112@ocft.com,7554707
trung113,Danue,trung113@ocft.com,7554708
trung114,Danue,trung114@ocft.com,7554709
trung115,Danue,trung115@ocft.com,7554710
trung116,Danue,trung116@ocft.com,7554711
trung117,Danue,trung117@ocft.com,7554712
trung118,Danue,trung118@ocft.com,7554713
trung119,Danue,trung119@ocft.com,7554714
trung120,Danue,trung120@ocft.com,7554715
trung121,Danue,trung121@ocft.com,7554716
trung122,Danue,trung122@ocft.com,7554717
trung123,Danue,trung123@ocft.com,7554718
trung124,Danue,trung124@ocft.com,7554719
trung125,Danue,trung125@ocft.com,7554720
trung126,Danue,trung126@ocft.com,7554721
trung127,Danue,trung127@ocft.com,7554722
trung128,Danue,trung128@ocft.com,7554723
trung129,Danue,trung129@ocft.com,7554724
trung130,Danue,trung130@ocft.com,7554725
trung131,Danue,trung131@ocft.com,7554726
trung132,Danue,trung132@ocft.com,7554727
trung133,Danue,trung133@ocft.com,7554728
trung134,Danue,trung134@ocft.com,7554729
trung135,Danue,trung135@ocft.com,7554730
trung136,Danue,trung136@ocft.com,7554731
trung137,Danue,trung137@ocft.com,7554732
trung138,Danue,trung138@ocft.com,7554733
trung139,Danue,trung139@ocft.com,7554734
trung140,Danue,trung140@ocft.com,7554735
trung141,Danue,trung141@ocft.com,7554736
trung142,Danue,trung142@ocft.com,7554737
trung143,Danue,trung143@ocft.com,7554738
trung144,Danue,trung144@ocft.com,7554739
trung145,Danue,trung145@ocft.com,7554740
trung146,Danue,trung146@ocft.com,7554741
trung147,Danue,trung147@ocft.com,7554742
trung148,Danue,trung148@ocft.com,7554743
trung149,Danue,trung149@ocft.com,7554744
trung150,Danue,trung150@ocft.com,7554745
trung151,Danue,trung151@ocft.com,7554746
trung152,Danue,trung152@ocft.com,7554747
trung153,Danue,trung153@ocft.com,7554748
trung154,Danue,trung154@ocft.com,7554749
trung155,Danue,trung155@ocft.com,7554750
trung156,Danue,trung156@ocft.com,7554751
trung157,Danue,trung157@ocft.com,7554752
trung158,Danue,trung158@ocft.com,7554753
trung159,Danue,trung159@ocft.com,7554754
trung160,Danue,trung160@ocft.com,7554755
trung161,Danue,trung161@ocft.com,7554756
trung162,Danue,trung162@ocft.com,7554757
trung163,Danue,trung163@ocft.com,7554758
trung164,Danue,trung164@ocft.com,7554759
trung165,Danue,trung165@ocft.com,7554760
trung166,Danue,trung166@ocft.com,7554761
trung167,Danue,trung167@ocft.com,7554762
trung168,Danue,trung168@ocft.com,7554763
trung169,Danue,trung169@ocft.com,7554764
trung170,Danue,trung170@ocft.com,7554765
trung171,Danue,trung171@ocft.com,7554766
trung172,Danue,trung172@ocft.com,7554767
trung173,Danue,trung173@ocft.com,7554768
trung174,Danue,trung174@ocft.com,7554769
trung175,Danue,trung175@ocft.com,7554770
trung176,Danue,trung176@ocft.com,7554771
trung177,Danue,trung177@ocft.com,7554772
trung178,Danue,trung178@ocft.com,7554773
trung179,Danue,trung179@ocft.com,7554774
trung180,Danue,trung180@ocft.com,7554775
trung181,Danue,trung181@ocft.com,7554776
trung182,Danue,trung182@ocft.com,7554777
trung183,Danue,trung183@ocft.com,7554778
trung184,Danue,trung184@ocft.com,7554779
trung185,Danue,trung185@ocft.com,7554780
trung186,Danue,trung186@ocft.com,7554781
trung187,Danue,trung187@ocft.com,7554782
trung188,Danue,trung188@ocft.com,7554783
trung189,Danue,trung189@ocft.com,7554784
trung190,Danue,trung190@ocft.com,7554785
trung191,Danue,trung191@ocft.com,7554786
trung192,Danue,trung192@ocft.com,7554787
trung193,Danue,trung193@ocft.com,7554788
trung194,Danue,trung194@ocft.com,7554789
trung195,Danue,trung195@ocft.com,7554790
trung196,Danue,trung196@ocft.com,7554791
trung197,Danue,trung197@ocft.com,7554792
trung198,Danue,trung198@ocft.com,7554793
trung199,Danue,trung199@ocft.com,7554794
trung200,Danue,trung200@ocft.com,7554795
trung201,Danue,trung201@ocft.com,7554796
trung202,Danue,trung202@ocft.com,7554797
trung203,Danue,trung203@ocft.com,7554798
trung204,Danue,trung204@ocft.com,7554799
trung205,Danue,trung205@ocft.com,7554800
trung206,Danue,trung206@ocft.com,7554801
trung207,Danue,trung207@ocft.com,7554802
trung208,Danue,trung208@ocft.com,7554803
trung209,Danue,trung209@ocft.com,3219845
trung210,Danue,trung210@ocft.com,3219846
trung211,Danue,trung211@ocft.com,3219847
trung212,Danue,trung212@ocft.com,3219848
trung213,Danue,trung213@ocft.com,3219849
trung214,Danue,trung214@ocft.com,3219850
trung215,Danue,trung215@ocft.com,3219851
trung216,Danue,trung216@ocft.com,3219852
trung217,Danue,trung217@ocft.com,3219853
trung218,Danue,trung218@ocft.com,3219854
trung219,Danue,trung219@ocft.com,3219855
trung220,Danue,trung220@ocft.com,3219856
trung221,Danue,trung221@ocft.com,3219857
trung222,Danue,trung222@ocft.com,3219858
trung223,Danue,trung223@ocft.com,3219859
trung224,Danue,trung224@ocft.com,3219860
trung225,Danue,trung225@ocft.com,3219861
trung226,Danue,trung226@ocft.com,3219862
trung227,Danue,trung227@ocft.com,3219863
trung228,Danue,trung228@ocft.com,3219864
trung229,Danue,trung229@ocft.com,3219865
trung230,Danue,trung230@ocft.com,3219866
trung231,Danue,trung231@ocft.com,3219867
trung232,Danue,trung232@ocft.com,3219868
trung233,Danue,trung233@ocft.com,3219869
trung234,Danue,trung234@ocft.com,3219870
trung235,Danue,trung235@ocft.com,3219871
trung236,Danue,trung236@ocft.com,3219872
trung237,Danue,trung237@ocft.com,3219873
trung238,Danue,trung238@ocft.com,3219874
trung239,Danue,trung239@ocft.com,3219875
trung240,Danue,trung240@ocft.com,3219876
trung241,Danue,trung241@ocft.com,3219877
trung242,Danue,trung242@ocft.com,3219878
trung243,Danue,trung243@ocft.com,3219879
trung244,Danue,trung244@ocft.com,3219880
trung245,Danue,trung245@ocft.com,3219881
trung246,Danue,trung246@ocft.com,3219882
trung247,Danue,trung247@ocft.com,3219883
trung248,Danue,trung248@ocft.com,3219884
trung249,Danue,trung249@ocft.com,3219885
trung250,Danue,trung250@ocft.com,3219886
trung251,Danue,trung251@ocft.com,3219887
trung252,Danue,trung252@ocft.com,3219888
trung253,Danue,trung253@ocft.com,3219889
trung254,Danue,trung254@ocft.com,3219890
trung255,Danue,trung255@ocft.com,3219891
trung256,Danue,trung256@ocft.com,3219892
trung257,Danue,trung257@ocft.com,3219893
trung258,Danue,trung258@ocft.com,3219894
trung259,Danue,trung259@ocft.com,3219895
trung260,Danue,trung260@ocft.com,3219896
trung261,Danue,trung261@ocft.com,3219897
trung262,Danue,trung262@ocft.com,3219898
trung263,Danue,trung263@ocft.com,3219899
trung264,Danue,trung264@ocft.com,3219900
trung265,Danue,trung265@ocft.com,3219901
trung266,Danue,trung266@ocft.com,3219902
trung267,Danue,trung267@ocft.com,3219903
trung268,Danue,trung268@ocft.com,3219904
trung269,Danue,trung269@ocft.com,3219905
trung270,Danue,trung270@ocft.com,3219906
trung271,Danue,trung271@ocft.com,3219907
trung272,Danue,trung272@ocft.com,3219908
trung273,Danue,trung273@ocft.com,3219909
trung274,Danue,trung274@ocft.com,3219910
trung275,Danue,trung275@ocft.com,3219911
trung276,Danue,trung276@ocft.com,3219912
trung277,Danue,trung277@ocft.com,3219913
trung278,Danue,trung278@ocft.com,3219914
trung279,Danue,trung279@ocft.com,3219915
trung280,Danue,trung280@ocft.com,3219916
trung281,Danue,trung281@ocft.com,3219917
trung282,Danue,trung282@ocft.com,3219918
trung283,Danue,trung283@ocft.com,3219919
trung284,Danue,trung284@ocft.com,3219920
trung285,Danue,trung285@ocft.com,3219921
trung286,Danue,trung286@ocft.com,3219922
trung287,Danue,trung287@ocft.com,3219923
trung288,Danue,trung288@ocft.com,3219924
trung289,Danue,trung289@ocft.com,3219925
trung290,Danue,trung290@ocft.com,3219926
trung291,Danue,trung291@ocft.com,3219927
trung292,Danue,trung292@ocft.com,3219928
trung293,Danue,trung293@ocft.com,3219929
trung294,Danue,trung294@ocft.com,3219930
trung295,Danue,trung295@ocft.com,3219931
trung296,Danue,trung296@ocft.com,3219932
trung297,Danue,trung297@ocft.com,3219933
trung298,Danue,trung298@ocft.com,3219934
trung299,Danue,trung299@ocft.com,3219935
trung300,Danue,trung300@ocft.com,3219936
trung301,Danue,trung301@ocft.com,3219937
trung302,Danue,trung302@ocft.com,3219938
trung303,Danue,trung303@ocft.com,3219939
trung304,Danue,trung304@ocft.com,3219940
trung305,Danue,trung305@ocft.com,3219941
trung306,Danue,trung306@ocft.com,3219942
trung307,Danue,trung307@ocft.com,3219943
trung308,Danue,trung308@ocft.com,3219944
trung309,Danue,trung309@ocft.com,3219945
trung310,Danue,trung310@ocft.com,3219946
trung311,Danue,trung311@ocft.com,3219947
trung312,Danue,trung312@ocft.com,3219948
trung313,Danue,trung313@ocft.com,3219949
trung314,Danue,trung314@ocft.com,3219950
trung315,Danue,trung315@ocft.com,3219951
trung316,Danue,trung316@ocft.com,3219952
trung317,Danue,trung317@ocft.com,3219953
trung318,Danue,trung318@ocft.com,3219954
trung319,Danue,trung319@ocft.com,3219955
trung320,Danue,trung320@ocft.com,3219956
trung321,Danue,trung321@ocft.com,3219957
trung322,Danue,trung322@ocft.com,3219958
trung323,Danue,trung323@ocft.com,3219959
trung324,Danue,trung324@ocft.com,3219960
trung325,Danue,trung325@ocft.com,3219961
trung326,Danue,trung326@ocft.com,3219962
trung327,Danue,trung327@ocft.com,3219963
trung328,Danue,trung328@ocft.com,3219964
trung329,Danue,trung329@ocft.com,3219965
trung330,Danue,trung330@ocft.com,3219966
trung331,Danue,trung331@ocft.com,3219967
trung332,Danue,trung332@ocft.com,3219968
trung333,Danue,trung333@ocft.com,3219969
trung334,Danue,trung334@ocft.com,3219970
trung335,Danue,trung335@ocft.com,3219971
trung336,Danue,trung336@ocft.com,3219972
trung337,Danue,trung337@ocft.com,3219973
trung338,Danue,trung338@ocft.com,3219974
trung339,Danue,trung339@ocft.com,3219975
trung340,Danue,trung340@ocft.com,3219976
trung341,Danue,trung341@ocft.com,3219977
trung342,Danue,trung342@ocft.com,3219978
trung343,Danue,trung343@ocft.com,3219979
trung344,Danue,trung344@ocft.com,3219980
trung345,Danue,trung345@ocft.com,3219981
trung346,Danue,trung346@ocft.com,3219982
trung347,Danue,trung347@ocft.com,3219983
trung348,Danue,trung348@ocft.com,3219984
trung349,Danue,trung349@ocft.com,3219985
trung350,Danue,trung350@ocft.com,3219986
trung351,Danue,trung351@ocft.com,3219987
trung352,Danue,trung352@ocft.com,3219988
trung353,Danue,trung353@ocft.com,3219989
trung354,Danue,trung354@ocft.com,3219990
trung355,Danue,trung355@ocft.com,3219991
trung356,Danue,trung356@ocft.com,3219992
trung357,Danue,trung357@ocft.com,3219993
trung358,Danue,trung358@ocft.com,3219994
trung359,Danue,trung359@ocft.com,3219995
trung360,Danue,trung360@ocft.com,3219996
trung361,Danue,trung361@ocft.com,3219997
trung362,Danue,trung362@ocft.com,3219998
trung363,Danue,trung363@ocft.com,3219999
trung364,Danue,trung364@ocft.com,3220000
trung365,Danue,trung365@ocft.com,3220001
trung366,Danue,trung366@ocft.com,3220002
trung367,Danue,trung367@ocft.com,3220003
trung368,Danue,trung368@ocft.com,3220004
trung369,Danue,trung369@ocft.com,3220005
trung370,Danue,trung370@ocft.com,3220006
trung371,Danue,trung371@ocft.com,3220007
trung372,Danue,trung372@ocft.com,3220008
trung373,Danue,trung373@ocft.com,3220009
trung374,Danue,trung374@ocft.com,3220010
trung375,Danue,trung375@ocft.com,3220011
trung376,Danue,trung376@ocft.com,3220012
trung377,Danue,trung377@ocft.com,3220013
trung378,Danue,trung378@ocft.com,3220014
trung379,Danue,trung379@ocft.com,3220015
trung380,Danue,trung380@ocft.com,3220016
trung381,Danue,trung381@ocft.com,3220017
trung382,Danue,trung382@ocft.com,3220018
trung383,Danue,trung383@ocft.com,3220019
trung384,Danue,trung384@ocft.com,3220020
trung385,Danue,trung385@ocft.com,3220021
trung386,Danue,trung386@ocft.com,3220022
trung387,Danue,trung387@ocft.com,3220023
trung388,Danue,trung388@ocft.com,3220024
trung389,Danue,trung389@ocft.com,3220025
trung390,Danue,trung390@ocft.com,3220026
trung391,Danue,trung391@ocft.com,3220027
trung392,Danue,trung392@ocft.com,3220028
trung393,Danue,trung393@ocft.com,3220029
trung394,Danue,trung394@ocft.com,3220030
trung395,Danue,trung395@ocft.com,3220031
trung396,Danue,trung396@ocft.com,3220032
trung397,Danue,trung397@ocft.com,3220033
trung398,Danue,trung398@ocft.com,3220034
trung399,Danue,trung399@ocft.com,3220035
trung400,Danue,trung400@ocft.com,3220036
trung401,Danue,trung401@ocft.com,3220037
trung402,Danue,trung402@ocft.com,3220038
trung403,Danue,trung403@ocft.com,3220039
trung404,Danue,trung404@ocft.com,3220040
trung405,Danue,trung405@ocft.com,3220041
trung406,Danue,trung406@ocft.com,3220042
trung407,Danue,trung407@ocft.com,3220043
trung408,Danue,trung408@ocft.com,3220044
trung409,Danue,trung409@ocft.com,3220045
trung410,Danue,trung410@ocft.com,3220046
trung411,Danue,trung411@ocft.com,3220047
trung412,Danue,trung412@ocft.com,3220048
trung413,Danue,trung413@ocft.com,3220049
trung414,Danue,trung414@ocft.com,3220050
trung415,Danue,trung415@ocft.com,3220051
trung416,Danue,trung416@ocft.com,3220052
trung417,Danue,trung417@ocft.com,3220053
trung418,Danue,trung418@ocft.com,3220054
trung419,Danue,trung419@ocft.com,3220055
trung420,Danue,trung420@ocft.com,3220056
trung421,Danue,trung421@ocft.com,3220057
trung422,Danue,trung422@ocft.com,3220058
trung423,Danue,trung423@ocft.com,3220059
trung424,Danue,trung424@ocft.com,3220060
trung425,Danue,trung425@ocft.com,3220061
trung426,Danue,trung426@ocft.com,3220062
trung427,Danue,trung427@ocft.com,3220063
trung428,Danue,trung428@ocft.com,3220064
trung429,Danue,trung429@ocft.com,3220065
trung430,Danue,trung430@ocft.com,3220066
trung431,Danue,trung431@ocft.com,3220067
trung432,Danue,trung432@ocft.com,3220068
trung433,Danue,trung433@ocft.com,3220069
trung434,Danue,trung434@ocft.com,3220070
trung435,Danue,trung435@ocft.com,3220071
trung436,Danue,trung436@ocft.com,3220072
trung437,Danue,trung437@ocft.com,3220073
trung438,Danue,trung438@ocft.com,3220074
trung439,Danue,trung439@ocft.com,3220075
trung440,Danue,trung440@ocft.com,3220076
trung441,Danue,trung441@ocft.com,3220077
trung442,Danue,trung442@ocft.com,3220078
trung443,Danue,trung443@ocft.com,3220079
trung444,Danue,trung444@ocft.com,3220080
trung445,Danue,trung445@ocft.com,3220081
trung446,Danue,trung446@ocft.com,3220082
trung447,Danue,trung447@ocft.com,3220083
trung448,Danue,trung448@ocft.com,3220084
trung449,Danue,trung449@ocft.com,3220085
trung450,Danue,trung450@ocft.com,3220086
trung451,Danue,trung451@ocft.com,3220087
trung452,Danue,trung452@ocft.com,3220088
trung453,Danue,trung453@ocft.com,3220089
trung454,Danue,trung454@ocft.com,3220090
trung455,Danue,trung455@ocft.com,3220091
trung456,Danue,trung456@ocft.com,3220092
trung457,Danue,trung457@ocft.com,3220093
trung458,Danue,trung458@ocft.com,3220094
trung459,Danue,trung459@ocft.com,3220095
trung460,Danue,trung460@ocft.com,3220096
trung461,Danue,trung461@ocft.com,3220097
trung462,Danue,trung462@ocft.com,3220098
trung463,Danue,trung463@ocft.com,3220099
trung464,Danue,trung464@ocft.com,3220100
trung465,Danue,trung465@ocft.com,3220101
trung466,Danue,trung466@ocft.com,3220102
trung467,Danue,trung467@ocft.com,3220103
trung468,Danue,trung468@ocft.com,3220104
trung469,Danue,trung469@ocft.com,3220105
trung470,Danue,trung470@ocft.com,3220106
trung471,Danue,trung471@ocft.com,3220107
trung472,Danue,trung472@ocft.com,3220108
trung473,Danue,trung473@ocft.com,3220109
trung474,Danue,trung474@ocft.com,3220110
trung475,Danue,trung475@ocft.com,3220111
trung476,Danue,trung476@ocft.com,3220112
trung477,Danue,trung477@ocft.com,3220113
trung478,Danue,trung478@ocft.com,3220114
trung479,Danue,trung479@ocft.com,3220115
trung480,Danue,trung480@ocft.com,3220116
trung481,Danue,trung481@ocft.com,3220117
trung482,Danue,trung482@ocft.com,3220118
trung483,Danue,trung483@ocft.com,3220119
trung484,Danue,trung484@ocft.com,3220120
trung485,Danue,trung485@ocft.com,3220121
trung486,Danue,trung486@ocft.com,3220122
trung487,Danue,trung487@ocft.com,3220123
trung488,Danue,trung488@ocft.com,3220124
trung489,Danue,trung489@ocft.com,3220125
trung490,Danue,trung490@ocft.com,3220126
trung491,Danue,trung491@ocft.com,3220127
trung492,Danue,trung492@ocft.com,3220128
trung493,Danue,trung493@ocft.com,3220129
trung494,Danue,trung494@ocft.com,3220130
trung495,Danue,trung495@ocft.com,3220131
trung496,Danue,trung496@ocft.com,3220132
trung497,Danue,trung497@ocft.com,3220133
trung498,Danue,trung498@ocft.com,3220134
trung499,Danue,trung499@ocft.com,3220135
trung500,Danue,trung500@ocft.com,3220136
trung501,Danue,trung501@ocft.com,3220137
trung502,Danue,trung502@ocft.com,3220138
trung503,Danue,trung503@ocft.com,3220139
trung504,Danue,trung504@ocft.com,3220140
trung505,Danue,trung505@ocft.com,3220141
trung506,Danue,trung506@ocft.com,3220142
trung507,Danue,trung507@ocft.com,3220143
trung508,Danue,trung508@ocft.com,3220144
trung509,Danue,trung509@ocft.com,3220145
trung510,Danue,trung510@ocft.com,3220146
trung511,Danue,trung511@ocft.com,3220147
trung512,Danue,trung512@ocft.com,3220148
trung513,Danue,trung513@ocft.com,3220149
trung514,Danue,trung514@ocft.com,3220150
trung515,Danue,trung515@ocft.com,3220151
trung516,Danue,trung516@ocft.com,3220152
trung517,Danue,trung517@ocft.com,3220153
trung518,Danue,trung518@ocft.com,3220154
trung519,Danue,trung519@ocft.com,3220155
trung520,Danue,trung520@ocft.com,3220156
trung521,Danue,trung521@ocft.com,3220157
trung522,Danue,trung522@ocft.com,3220158
